Crop raw water/air temperature data from HOBO sensors — crop_raw_data • dataQCtools
…
# read in LDRTimes lookup table and take a look at it
ldrtimes = readxl::read_xlsx(paste0(rawdata_loc, ldrtimes_fn))
ldrtimes # or View(ldrtimes)
#> # A tibble: 65 × 9
#>    site          media latitude longitude unit_sn deploy_time        
#>    <chr>         <chr> <lgl>    <lgl>     <lgl>   <dttm>             
#>  1 Alder         water NA       NA        NA      2022-05-26 16:00:00
#>  2 AndersonLower water NA       NA        NA      2022-05-13 16:00:00
#>  3 AndersonUpper water NA       NA        NA      2022-05-27 16:00:00
#>  4 BradenLower   water NA       NA        NA      2022-05-11 16:00:00
#>  5 BradenUpper   water NA       NA        NA      2022-05-25 16:00:00
#>  6 CanyonSprings water NA       NA        NA      2022-05-19 16:00:00
#>  7 CedarLower    water NA       NA        NA      2022-05-20 16:00:00
#>  8 CedarUpper    water NA       NA        NA      2022-05-25 16:00:00
#>  9 ChalaatLower  water NA       NA        NA      2022-05-13 16:00:00
#> 10 ChalaatUpper  water NA       NA        NA      2022-05-11 16:00:00
#> # ℹ 55 more rows
#> # ℹ 3 more variables: retrieval_time <dttm>, deploy_season <chr>,
#> #   deploy_year <dbl>
…
